Library\Bee\artifacts\movedfrom\UnityEditor.TestRunner.ref.dll_1819107689489022899.movedfrom
Library\Bee\artifacts\movedfrom\UnityEditor.UI.ref.dll_5519394401220875509.movedfrom
Library\Bee\artifacts\movedfrom\UnityEngine.TestRunner.ref.dll_16527383234446630302.movedfrom
Library\Bee\artifacts\movedfrom\UnityEngine.UI.ref.dll_648142665722821984.movedfrom
Library\Bee\artifacts\movedfrom\UnityEditor.Graphs.dll_6412749039792604389.movedfrom
Library\Bee\artifacts\movedfrom\UnityEditor.CoreModule.dll_7021629572081233331.movedfrom
Library\Bee\artifacts\movedfrom\UnityEditor.DeviceSimulatorModule.dll_4203442581716521854.movedfrom
Library\Bee\artifacts\movedfrom\UnityEditor.dll_9761669552849513842.movedfrom
Library\Bee\artifacts\movedfrom\UnityEditor.GraphViewModule.dll_16047186859620190371.movedfrom
Library\Bee\artifacts\movedfrom\UnityEditor.PackageManagerUIModule.dll_7841708284520786255.movedfrom
Library\Bee\artifacts\movedfrom\UnityEditor.QuickSearchModule.dll_11564033856245330597.movedfrom
Library\Bee\artifacts\movedfrom\UnityEditor.SceneTemplateModule.dll_5038384039274438.movedfrom
Library\Bee\artifacts\movedfrom\UnityEditor.UIBuilderModule.dll_3691751619624616407.movedfrom
Library\Bee\artifacts\movedfrom\UnityEditor.UIElementsModule.dll_12303761735604006415.movedfrom
Library\Bee\artifacts\movedfrom\UnityEditor.UIElementsSamplesModule.dll_17790979950167550286.movedfrom
Library\Bee\artifacts\movedfrom\UnityEditor.UIServiceModule.dll_7795112946629743089.movedfrom
Library\Bee\artifacts\movedfrom\UnityEditor.UnityConnectModule.dll_6208052702407570921.movedfrom
Library\Bee\artifacts\movedfrom\UnityEngine.AccessibilityModule.dll_3654479753384906595.movedfrom
Library\Bee\artifacts\movedfrom\UnityEngine.AIModule.dll_13897347150958183335.movedfrom
Library\Bee\artifacts\movedfrom\UnityEngine.AndroidJNIModule.dll_2956796703159082213.movedfrom
Library\Bee\artifacts\movedfrom\UnityEngine.AnimationModule.dll_12481879844530363721.movedfrom
Library\Bee\artifacts\movedfrom\UnityEngine.ARModule.dll_8813562739848094320.movedfrom
Library\Bee\artifacts\movedfrom\UnityEngine.AssetBundleModule.dll_16457532338679490455.movedfrom
Library\Bee\artifacts\movedfrom\UnityEngine.AudioModule.dll_5526854675350848507.movedfrom
Library\Bee\artifacts\movedfrom\UnityEngine.ClothModule.dll_12942133694287274719.movedfrom
Library\Bee\artifacts\movedfrom\UnityEngine.ClusterInputModule.dll_15403405977624512687.movedfrom
Library\Bee\artifacts\movedfrom\UnityEngine.ClusterRendererModule.dll_4612358040362017026.movedfrom
Library\Bee\artifacts\movedfrom\UnityEngine.CoreModule.dll_9552884914623158494.movedfrom
Library\Bee\artifacts\movedfrom\UnityEngine.CrashReportingModule.dll_11028726414441767734.movedfrom
Library\Bee\artifacts\movedfrom\UnityEngine.DirectorModule.dll_14686821238511480443.movedfrom
Library\Bee\artifacts\movedfrom\UnityEngine.dll_13410789046037969495.movedfrom
Library\Bee\artifacts\movedfrom\UnityEngine.DSPGraphModule.dll_15070015787333091228.movedfrom
Library\Bee\artifacts\movedfrom\UnityEngine.GameCenterModule.dll_6004970704814525910.movedfrom
Library\Bee\artifacts\movedfrom\UnityEngine.GIModule.dll_6420326192411651009.movedfrom
Library\Bee\artifacts\movedfrom\UnityEngine.GridModule.dll_7062706505088347861.movedfrom
Library\Bee\artifacts\movedfrom\UnityEngine.HotReloadModule.dll_3351040532398356683.movedfrom
Library\Bee\artifacts\movedfrom\UnityEngine.ImageConversionModule.dll_12390635006347090166.movedfrom
Library\Bee\artifacts\movedfrom\UnityEngine.IMGUIModule.dll_9588995328022943708.movedfrom
Library\Bee\artifacts\movedfrom\UnityEngine.InputLegacyModule.dll_8478590992074694024.movedfrom
Library\Bee\artifacts\movedfrom\UnityEngine.InputModule.dll_12909881400206207135.movedfrom
Library\Bee\artifacts\movedfrom\UnityEngine.JSONSerializeModule.dll_10578633596268490733.movedfrom
Library\Bee\artifacts\movedfrom\UnityEngine.LocalizationModule.dll_1445847288574114728.movedfrom
Library\Bee\artifacts\movedfrom\UnityEngine.ParticleSystemModule.dll_17014653861783563972.movedfrom
Library\Bee\artifacts\movedfrom\UnityEngine.PerformanceReportingModule.dll_9293173082658769821.movedfrom
Library\Bee\artifacts\movedfrom\UnityEngine.Physics2DModule.dll_18004964179342267614.movedfrom
Library\Bee\artifacts\movedfrom\UnityEngine.PhysicsModule.dll_12075323880091110444.movedfrom
Library\Bee\artifacts\movedfrom\UnityEngine.ProfilerModule.dll_18309467095441421704.movedfrom
Library\Bee\artifacts\movedfrom\UnityEngine.RuntimeInitializeOnLoadManagerInitializerModule.dll_1834671043213017511.movedfrom
Library\Bee\artifacts\movedfrom\UnityEngine.ScreenCaptureModule.dll_12445284953921739855.movedfrom
Library\Bee\artifacts\movedfrom\UnityEngine.SharedInternalsModule.dll_3460347506796565574.movedfrom
Library\Bee\artifacts\movedfrom\UnityEngine.SpriteMaskModule.dll_4360156904279270224.movedfrom
Library\Bee\artifacts\movedfrom\UnityEngine.SpriteShapeModule.dll_18286325129986236321.movedfrom
Library\Bee\artifacts\movedfrom\UnityEngine.StreamingModule.dll_7047421923388478599.movedfrom
Library\Bee\artifacts\movedfrom\UnityEngine.SubstanceModule.dll_4501503064069493397.movedfrom
Library\Bee\artifacts\movedfrom\UnityEngine.SubsystemsModule.dll_12047069613529254755.movedfrom
Library\Bee\artifacts\movedfrom\UnityEngine.TerrainModule.dll_13968660289409619226.movedfrom
Library\Bee\artifacts\movedfrom\UnityEngine.TerrainPhysicsModule.dll_17049179433557649745.movedfrom
Library\Bee\artifacts\movedfrom\UnityEngine.TextCoreModule.dll_7245418808380366475.movedfrom
Library\Bee\artifacts\movedfrom\UnityEngine.TextRenderingModule.dll_15417504623358663748.movedfrom
Library\Bee\artifacts\movedfrom\UnityEngine.TilemapModule.dll_6978061571970463267.movedfrom
Library\Bee\artifacts\movedfrom\UnityEngine.TLSModule.dll_14658470530841620992.movedfrom
Library\Bee\artifacts\movedfrom\UnityEngine.UIElementsModule.dll_12352858537594750810.movedfrom
Library\Bee\artifacts\movedfrom\UnityEngine.UIElementsNativeModule.dll_13208227269456288113.movedfrom
Library\Bee\artifacts\movedfrom\UnityEngine.UIModule.dll_13569602720749144403.movedfrom
Library\Bee\artifacts\movedfrom\UnityEngine.UmbraModule.dll_14377743064488030062.movedfrom
Library\Bee\artifacts\movedfrom\UnityEngine.UNETModule.dll_1673353483930832471.movedfrom
Library\Bee\artifacts\movedfrom\UnityEngine.UnityAnalyticsModule.dll_846573736025768128.movedfrom
Library\Bee\artifacts\movedfrom\UnityEngine.UnityConnectModule.dll_4865843738342078100.movedfrom
Library\Bee\artifacts\movedfrom\UnityEngine.UnityCurlModule.dll_16164875673518411574.movedfrom
Library\Bee\artifacts\movedfrom\UnityEngine.UnityTestProtocolModule.dll_12873812159528746660.movedfrom
Library\Bee\artifacts\movedfrom\UnityEngine.UnityWebRequestAssetBundleModule.dll_13334309730863707025.movedfrom
Library\Bee\artifacts\movedfrom\UnityEngine.UnityWebRequestAudioModule.dll_17939050682506270261.movedfrom
Library\Bee\artifacts\movedfrom\UnityEngine.UnityWebRequestModule.dll_13660377053198496629.movedfrom
Library\Bee\artifacts\movedfrom\UnityEngine.UnityWebRequestTextureModule.dll_11713994089145005226.movedfrom
Library\Bee\artifacts\movedfrom\UnityEngine.UnityWebRequestWWWModule.dll_4342588713721400870.movedfrom
Library\Bee\artifacts\movedfrom\UnityEngine.VehiclesModule.dll_4869811326702943766.movedfrom
Library\Bee\artifacts\movedfrom\UnityEngine.VFXModule.dll_5497753540627929965.movedfrom
Library\Bee\artifacts\movedfrom\UnityEngine.VideoModule.dll_8195664523610333088.movedfrom
Library\Bee\artifacts\movedfrom\UnityEngine.VirtualTexturingModule.dll_15841905539735902716.movedfrom
Library\Bee\artifacts\movedfrom\UnityEngine.VRModule.dll_1090733458644782795.movedfrom
Library\Bee\artifacts\movedfrom\UnityEngine.WindModule.dll_18077877026563528519.movedfrom
Library\Bee\artifacts\movedfrom\UnityEngine.XRModule.dll_4747307830365789225.movedfrom
Library\Bee\artifacts\movedfrom\UnityEditor.WindowsStandalone.Extensions.dll_6996562057980951069.movedfrom